<define-tag pagetitle>DLA-1133-1 ming</define-tag>
<define-tag report_date>2017-10-21</define-tag>
<define-tag secrefs>CVE-2017-11704 CVE-2017-11728 CVE-2017-11729 CVE-2017-11730 CVE-2017-11731 CVE-2017-11734</define-tag>
<define-tag packages>ming</define-tag>
<define-tag isvulnerable>yes</define-tag>
<define-tag fixed>yes</define-tag>
<define-tag fixed-section>no</define-tag>

#use wml::debian::security

