<define-tag pagetitle>DLA-806-1 zoneminder</define-tag>
<define-tag report_date>2017-1-29</define-tag>
<define-tag secrefs>CVE-2016-10140</define-tag>
<define-tag packages>zoneminder</define-tag>
<define-tag isvulnerable>yes</define-tag>
<define-tag fixed>yes</define-tag>
<define-tag fixed-section>no</define-tag>

#use wml::debian::security

