<define-tag pagetitle>DLA-995-1 swftools</define-tag>
<define-tag report_date>2017-6-20</define-tag>
<define-tag secrefs>CVE-2017-8400 CVE-2017-8401</define-tag>
<define-tag packages>swftools</define-tag>
<define-tag isvulnerable>yes</define-tag>
<define-tag fixed>yes</define-tag>
<define-tag fixed-section>no</define-tag>

#use wml::debian::security

