<define-tag pagetitle>DLA-1022-1 tiff</define-tag>
<define-tag report_date>2017-7-11</define-tag>
<define-tag secrefs>CVE-2017-9936 CVE-2017-10688 Bug#866113 Bug#866611</define-tag>
<define-tag packages>tiff</define-tag>
<define-tag isvulnerable>yes</define-tag>
<define-tag fixed>yes</define-tag>
<define-tag fixed-section>no</define-tag>

#use wml::debian::security

