<define-tag pagetitle>DLA-858-1 wireshark</define-tag>
<define-tag report_date>2017-3-17</define-tag>
<define-tag secrefs>CVE-2017-5596 CVE-2017-5597 CVE-2017-6467 CVE-2017-6468 CVE-2017-6469 CVE-2017-6470 CVE-2017-6471 CVE-2017-6472 CVE-2017-6473 CVE-2017-6474</define-tag>
<define-tag packages>wireshark</define-tag>
<define-tag isvulnerable>yes</define-tag>
<define-tag fixed>yes</define-tag>
<define-tag fixed-section>no</define-tag>

#use wml::debian::security

