<define-tag pagetitle>DLA-871-1 python3.2</define-tag>
<define-tag report_date>2017-3-25</define-tag>
<define-tag secrefs>CVE-2016-0772</define-tag>
<define-tag packages>python3.2</define-tag>
<define-tag isvulnerable>yes</define-tag>
<define-tag fixed>yes</define-tag>
<define-tag fixed-section>no</define-tag>

#use wml::debian::security

