<define-tag pagetitle>DLA-1042-1 libquicktime</define-tag>
<define-tag report_date>2017-7-28</define-tag>
<define-tag secrefs>CVE-2017-9122 CVE-2017-9123 CVE-2017-9124 CVE-2017-9125 CVE-2017-9126 CVE-2017-9127 CVE-2017-9128 Bug#864664</define-tag>
<define-tag packages>libquicktime</define-tag>
<define-tag isvulnerable>yes</define-tag>
<define-tag fixed>yes</define-tag>
<define-tag fixed-section>no</define-tag>

#use wml::debian::security

