<define-tag pagetitle>DLA-1375-1 wget</define-tag>
<define-tag report_date>2018-5-11</define-tag>
<define-tag secrefs>CVE-2018-0494 Bug#898076</define-tag>
<define-tag packages>wget</define-tag>
<define-tag isvulnerable>yes</define-tag>
<define-tag fixed>yes</define-tag>
<define-tag fixed-section>no</define-tag>

#use wml::debian::security

