<define-tag pagetitle>DLA-1582-1 liblivemedia</define-tag>
<define-tag report_date>2018-11-20</define-tag>
<define-tag secrefs>CVE-2018-4013</define-tag>
<define-tag packages>liblivemedia</define-tag>
<define-tag isvulnerable>yes</define-tag>
<define-tag fixed>yes</define-tag>
<define-tag fixed-section>no</define-tag>

#use wml::debian::security

