<define-tag pagetitle>DLA-1230-1 xen</define-tag>
<define-tag report_date>2018-1-5</define-tag>
<define-tag secrefs>CVE-2017-17044 CVE-2017-17045 CVE-2017-17563 CVE-2017-17564 CVE-2017-17565 CVE-2017-17566</define-tag>
<define-tag packages>xen</define-tag>
<define-tag isvulnerable>yes</define-tag>
<define-tag fixed>yes</define-tag>
<define-tag fixed-section>no</define-tag>

#use wml::debian::security

