<define-tag pagetitle>DSA-4419-1 twig</define-tag>
<define-tag report_date>2019-3-29</define-tag>
<define-tag secrefs>CVE-2019-9942</define-tag>
<define-tag packages>twig</define-tag>
<define-tag isvulnerable>yes</define-tag>
<define-tag fixed>yes</define-tag>
<define-tag fixed-section>no</define-tag>

#use wml::debian::security



</dl>
