<define-tag pagetitle>DLA-2052-1 libbsd</define-tag>
<define-tag report_date>2019-12-30</define-tag>
<define-tag secrefs>CVE-2016-2090</define-tag>
<define-tag packages>libbsd</define-tag>
<define-tag isvulnerable>yes</define-tag>
<define-tag fixed>yes</define-tag>
<define-tag fixed-section>no</define-tag>

#use wml::debian::security

