<define-tag pagetitle>DLA-1824-1 linux-4.9</define-tag>
<define-tag report_date>2019-06-18</define-tag>
<define-tag secrefs>CVE-2019-3846 CVE-2019-5489 CVE-2019-9500 CVE-2019-9503 CVE-2019-10126 CVE-2019-11477 CVE-2019-11478 CVE-2019-11479 CVE-2019-11486 CVE-2019-11599 CVE-2019-11815 CVE-2019-11833 CVE-2019-11884 Bug#928989</define-tag>
<define-tag packages>linux-4.9</define-tag>
<define-tag isvulnerable>yes</define-tag>
<define-tag fixed>yes</define-tag>
<define-tag fixed-section>no</define-tag>

#use wml::debian::security

