<define-tag pagetitle>DLA-1998-1 python-psutil</define-tag>
<define-tag report_date>2019-11-18</define-tag>
<define-tag secrefs>CVE-2019-18874</define-tag>
<define-tag packages>python-psutil</define-tag>
<define-tag isvulnerable>yes</define-tag>
<define-tag fixed>yes</define-tag>
<define-tag fixed-section>no</define-tag>

#use wml::debian::security
