<define-tag pagetitle>DLA-483-1 expat</define-tag>
<define-tag report_date>2016-5-19</define-tag>
<define-tag secrefs>CVE-2016-0718</define-tag>
<define-tag packages>expat</define-tag>
<define-tag isvulnerable>yes</define-tag>
<define-tag fixed>yes</define-tag>
<define-tag fixed-section>no</define-tag>

#use wml::debian::security

