<define-tag pagetitle>DLA-484-1 graphicsmagick</define-tag>
<define-tag report_date>2016-5-21</define-tag>
<define-tag secrefs>CVE-2015-8808 CVE-2016-2317 CVE-2016-2318 CVE-2016-3714 CVE-2016-3715 CVE-2016-3716 CVE-2016-3717 CVE-2016-3718 Bug#814732</define-tag>
<define-tag packages></define-tag>
<define-tag isvulnerable>yes</define-tag>
<define-tag fixed>yes</define-tag>
<define-tag fixed-section>no</define-tag>

#use wml::debian::security

